module github.com/nbering/terraform-provider-ansible

go 1.12

require (
	github.com/hashicorp/hcl v0.0.0-20171017181929-23c074d0eceb // indirect
	github.com/hashicorp/terraform v0.12.0-rc1
	google.golang.org/genproto v0.0.0-20190502173448-54afdca5d873 // indirect
)
